<?xml version="1.0" encoding="UTF-8" standalone="no"?>
<!DOCTYPE svg PUBLIC "-//W3C//DTD SVG 1.1//EN" "http://www.w3.org/Graphics/SVG/1.1/DTD/svg11.dtd">
<svg width="100%" height="100%" viewBox="0 0 1415 396" version="1.1" xmlns="http://www.w3.org/2000/svg" xmlns:xlink="http://www.w3.org/1999/xlink" xml:space="preserve" xmlns:serif="http://www.serif.com/" style="fill-rule:evenodd;clip-rule:evenodd;stroke-linejoin:round;stroke-miterlimit:1.41421;">
    <g id="Artboard1" transform="matrix(1,0,0,1,-103.702,-141.982)">
        <rect x="103.702" y="141.982" width="1414.62" height="395.539" style="fill:none;"/>
        <g id="path3024" transform="matrix(3.97723,0,0,-3.97723,903.181,343.406)">
            <path d="M0,0C0,5.089 -3.235,6.626 -6.683,6.626C-11.509,6.626 -15.802,4.348 -15.802,-0.85L-15.802,-17.657L-21.104,-17.657L-21.104,0C-21.104,5.089 -24.338,6.626 -27.782,6.626C-32.607,6.626 -36.904,3.817 -36.904,-1.644L-36.904,-17.657L-42.204,-17.657L-42.204,10.125L-36.904,10.125L-36.904,5.937L-36.797,5.937C-34.197,9.806 -29.957,11.08 -25.926,11.08C-22.32,11.08 -18.767,9.596 -16.487,5.937C-13.946,9.118 -10.552,11.08 -5.251,11.08C-2.438,11.08 5.301,9.754 5.301,1.271L5.301,-17.657L0,-17.657L0,0Z" style="fill:rgb(22,24,71);fill-rule:nonzero;"/>
        </g>
        <g id="path3028" transform="matrix(3.97723,0,0,-3.97723,1009.21,317.051)">
            <path d="M0,0C-7.686,0 -10.496,-5.355 -10.496,-10.392C-10.496,-15.429 -7.686,-20.783 0,-20.783C7.686,-20.783 10.501,-15.429 10.501,-10.392C10.501,-5.355 7.686,0 0,0M0,4.454C10.816,4.454 16.118,-2.388 16.118,-10.392C16.118,-18.397 10.816,-25.236 0,-25.236C-10.814,-25.236 -16.117,-18.397 -16.117,-10.392C-16.117,-2.388 -10.814,4.454 0,4.454" style="fill:rgb(22,24,71);fill-rule:nonzero;"/>
        </g>
        <g id="path3032" transform="matrix(3.97723,0,0,-3.97723,1205.29,413.631)">
            <path d="M0,0L-5.299,0L-5.299,4.19L-5.406,4.19C-8.002,0.318 -12.246,-0.953 -16.273,-0.953C-22.953,-0.953 -27.941,1.909 -27.941,8.854L-27.941,27.782L-22.637,27.782L-22.637,9.916C-22.637,5.833 -20.145,3.5 -14.42,3.5C-9.592,3.5 -5.299,6.31 -5.299,11.77L-5.299,27.782L0,27.782L0,0Z" style="fill:rgb(22,24,71);fill-rule:nonzero;"/>
        </g>
        <g id="path3036" transform="matrix(3.97723,0,0,-3.97723,1231.02,303.135)">
            <path d="M0,0L5.299,0L5.299,-4.188L5.404,-4.188C8.006,-0.319 12.246,0.955 16.273,0.955C22.957,0.955 27.936,-1.907 27.936,-8.854L27.936,-27.782L22.635,-27.782L22.635,-9.915C22.635,-5.833 20.143,-3.499 14.42,-3.499C9.59,-3.499 5.299,-6.309 5.299,-11.77L5.299,-27.782L0,-27.782L0,0Z" style="fill:rgb(22,24,71);fill-rule:nonzero;"/>
        </g>
        <g id="path3040" transform="matrix(3.97723,0,0,-3.97723,1377.12,269.184)">
            <path d="M0,0L5.299,0L5.299,-8.536L13.256,-8.536L13.256,-12.671L5.299,-12.671L5.299,-29.795C5.299,-32.075 6.896,-32.818 9.6,-32.818C10.813,-32.818 12.039,-32.659 13.256,-32.446L13.256,-36.9C11.402,-37.271 9.492,-37.271 7.314,-37.271C2.068,-37.271 0,-34.727 0,-30.699L0,-12.671L-5.725,-12.671L-5.725,-8.536L0,-8.536L0,0Z" style="fill:rgb(22,24,71);fill-rule:nonzero;"/>
        </g>
        <g id="path3044" transform="matrix(3.97723,0,0,-3.97723,264.591,367.596)">
            <path d="M0,0C1.982,-0.101 3.552,-1.733 3.552,-3.735C3.552,-5.802 1.879,-7.477 -0.184,-7.477C-2.253,-7.477 -3.924,-5.802 -3.924,-3.735C-3.924,-1.733 -2.349,-0.101 -0.372,0L0,0Z" style="fill:rgb(22,24,71);fill-rule:nonzero;"/>
        </g>
        <g id="path3048" transform="matrix(3.97723,0,0,-3.97723,440.791,355.85)">
            <path d="M0,0C0,-5.884 -3.295,-11.82 -10.656,-11.82C-16.774,-11.82 -20.726,-7.181 -20.726,0C-20.726,6.042 -17.481,12.139 -10.232,12.139C-3.202,12.139 0,5.846 0,0M0.051,6.221C-1.424,10.619 -5.468,13.523 -10.232,13.523C-18.437,13.523 -22.11,6.731 -22.11,0C-22.11,-6.091 -19.096,-13.205 -10.603,-13.205C-6.353,-13.205 -1.477,-10.802 0.051,-6.201L0.051,-13.625C0.051,-20.063 -3.372,-23.327 -10.123,-23.327C-15.694,-23.327 -19.103,-20.571 -19.239,-15.955L-19.244,-15.797L-20.631,-15.797L-20.627,-15.963C-20.48,-21.521 -16.633,-24.709 -10.072,-24.709C-2.544,-24.709 1.436,-20.876 1.436,-13.625L1.436,12.887L0.051,12.887L0.051,6.221Z" style="fill:rgb(22,24,71);fill-rule:nonzero;"/>
        </g>
        <g id="path3052" transform="matrix(3.97723,0,0,-3.97723,516.495,302.08)">
            <path d="M0,0L-0.159,0.004C-0.303,0.007 -0.444,0.009 -0.585,0.009C-5.742,0.009 -9.428,-2.441 -10.815,-6.746L-10.815,-0.632L-12.2,-0.632L-12.2,-28.209L-10.815,-28.209L-10.815,-12.617C-10.815,-6.814 -7.529,-0.948 -0.172,-1.38L0,-1.39L0,0Z" style="fill:rgb(22,24,71);fill-rule:nonzero;"/>
        </g>
        <g id="path3056" transform="matrix(3.97723,0,0,-3.97723,521.794,355.419)">
            <path d="M0,0C0.464,7.204 4.789,12.03 10.803,12.03C18.062,12.03 21.346,6.015 21.404,0L0,0ZM10.699,13.415C4.689,13.415 -1.395,8.46 -1.395,-1.009C-1.395,-5.217 -0.439,-8.75 1.369,-11.223C3.413,-14.019 6.448,-15.437 10.389,-15.437L10.39,-15.437C10.493,-15.437 10.598,-15.436 10.699,-15.434C17.068,-15.434 21.798,-11.328 22.469,-5.216L22.488,-5.036L21.111,-5.036L21.09,-5.174C20.233,-10.814 16.406,-14.049 10.591,-14.049C2.139,-14.049 0.155,-7.203 -0.005,-1.385L22.784,-1.385L22.79,-1.228C22.951,3.35 21.594,7.479 19.063,10.1C16.94,12.3 14.126,13.415 10.699,13.415" style="fill:rgb(22,24,71);fill-rule:nonzero;"/>
        </g>
        <g id="path3060" transform="matrix(3.97723,0,0,-3.97723,627.22,355.419)">
            <path d="M0,0C0.464,7.204 4.789,12.03 10.803,12.03C18.06,12.03 21.344,6.015 21.402,0L0,0ZM22.79,-1.228C22.95,3.352 21.592,7.48 19.063,10.101C16.939,12.3 14.125,13.415 10.697,13.415C4.688,13.415 -1.395,8.46 -1.395,-1.009C-1.395,-5.217 -0.439,-8.75 1.368,-11.223C3.412,-14.019 6.446,-15.437 10.387,-15.437L10.389,-15.437C10.492,-15.437 10.596,-15.436 10.697,-15.434C17.164,-15.434 21.784,-11.423 22.467,-5.216L22.487,-5.036L21.106,-5.036L21.085,-5.174C20.228,-10.814 16.404,-14.049 10.592,-14.049C2.139,-14.049 0.154,-7.203 -0.006,-1.385L22.784,-1.385L22.79,-1.228Z" style="fill:rgb(22,24,71);fill-rule:nonzero;"/>
        </g>
        <g id="path3064" transform="matrix(3.97723,0,0,-3.97723,270.454,245.624)">
            <path d="M0,0C0.728,0.541 1.159,1.391 1.159,2.294C1.159,3.88 -0.13,5.17 -1.714,5.17C-3.3,5.17 -4.591,3.88 -4.591,2.294C-4.591,1.389 -4.161,0.541 -3.434,0.002C-7.581,-15.105 -14.335,-29.222 -23.512,-41.96L-23.833,-42.404L-22.039,-42.404L-21.99,-42.336C-17.181,-35.599 -13.04,-28.488 -9.594,-21.059C-6.431,-14.243 -3.853,-7.159 -1.881,0.148L-1.73,0.705L-2.369,1.05C-2.838,1.298 -3.13,1.775 -3.13,2.294C-3.13,3.074 -2.495,3.709 -1.714,3.709C-0.935,3.709 -0.302,3.074 -0.302,2.294C-0.302,1.78 -0.59,1.305 -1.056,1.054L-1.704,0.703L-1.553,0.145C2.588,-15.134 9.373,-29.427 18.61,-42.336L18.659,-42.404L20.45,-42.404L20.042,-41.833C10.892,-29.133 4.149,-15.058 0,0" style="fill:rgb(22,24,71);fill-rule:nonzero;"/>
        </g>
    </g>
</svg>
